{
    "id": "a1a099ad-ce2b-4407-b4b5-ab94e8998130",
    "schema": "https://metadata.datadrivendiscovery.org/schemas/v0/pipeline.json",
    "created": "2019-06-06T22:14:00.979524Z",
    "inputs": [
        {
            "name": "inputs"
        }
    ],
    "outputs": [
        {
            "data": "steps.0.produce",
            "name": "results"
        }
    ],
    "steps": [
        {
            "type": "PRIMITIVE",
            "primitive": {
                "id": "fde90b15-155a-3c2a-866c-4a19354cf0c7",
                "version": "0.1.0",
                "python_path": "d3m.primitives.vertex_nomination.spectral_graph_clustering.JHU",
                "name": "jhu.sgc",
                "digest": "e430417515eafcfb93ac57f6f11e4a60a5831ed14bf515a87e826c1e5df62a55"
            },
            "arguments": {
                "inputs": {
                    "type": "CONTAINER",
                    "data": "inputs.0"
                }
            },
            "outputs": [
                {
                    "id": "produce"
                }
            ]
        }
    ],
    "digest": "51a299f796d46112955e7a653fbceae150cb8b6cca1c7ca7d613465818658a53"
}