{
    "id": "30276c10-cc98-4062-a941-4d1f2f4e7101",
    "schema": "https://metadata.datadrivendiscovery.org/schemas/v0/pipeline.json",
    "created": "2019-06-05T16:42:25.431720Z",
    "inputs": [
        {
            "name": "inputs"
        }
    ],
    "outputs": [
        {
            "data": "steps.6.produce",
            "name": "Links"
        }
    ],
    "steps": [
        {
            "type": "PRIMITIVE",
            "primitive": {
                "id": "f31f8c1f-d1c5-43e5-a4b2-2ae4a761ef2e",
                "version": "0.2.0",
                "python_path": "d3m.primitives.data_transformation.denormalize.Common",
                "name": "Denormalize datasets",
                "digest": "ae55c264bd8b0a58ce11976e5f39acb2e39288db4ca97163d3c2129f10aa8833"
            },
            "arguments": {
                "inputs": {
                    "type": "CONTAINER",
                    "data": "inputs.0"
                }
            },
            "outputs": [
                {
                    "id": "produce"
                }
            ]
        },
        {
            "type": "PRIMITIVE",
            "primitive": {
                "id": "952b659c-d290-465b-9e89-160947e29c06",
                "version": "0.1.4",
                "python_path": "d3m.primitives.data_preprocessing.targets_reader.TargetsReader",
                "name": "Targets Reader",
                "digest": "548b2f152888868e3924ad0a052a54b714a08ab22ec5d0d25722cca490e268a4"
            },
            "arguments": {
                "inputs": {
                    "type": "CONTAINER",
                    "data": "steps.0.produce"
                }
            },
            "outputs": [
                {
                    "id": "produce"
                }
            ]
        },
        {
            "type": "PRIMITIVE",
            "primitive": {
                "id": "503e69a1-5fc4-4f14-912a-4b564cb1b171",
                "version": "0.1.4",
                "python_path": "d3m.primitives.data_preprocessing.audio_reader.AudioReader",
                "name": "Audio Reader",
                "digest": "c2b00b7e13712cdbd52cb9eb733cb957bf4af02a6f18f32779ff14361b9e76bc"
            },
            "arguments": {
                "inputs": {
                    "type": "CONTAINER",
                    "data": "steps.0.produce"
                }
            },
            "outputs": [
                {
                    "id": "produce"
                }
            ]
        },
        {
            "type": "PRIMITIVE",
            "primitive": {
                "id": "2363d81d-7b05-361d-969b-72f3b5070107",
                "version": "0.0.5",
                "python_path": "d3m.primitives.feature_extraction.audio_featurization.Umich",
                "name": "AudioFeaturization",
                "digest": "65f49967f49be2fca9919e6513f106266c056c5378a234ce3e2d44a2baa12767"
            },
            "arguments": {
                "inputs": {
                    "type": "CONTAINER",
                    "data": "steps.2.produce"
                }
            },
            "outputs": [
                {
                    "id": "produce"
                }
            ]
        },
        {
            "type": "PRIMITIVE",
            "primitive": {
                "id": "37c2b19d-bdab-4a30-ba08-6be49edcc6af",
                "version": "0.4.0",
                "python_path": "d3m.primitives.classification.random_forest.DataFrameCommon",
                "name": "Random forest classifier",
                "digest": "35d3a194edb0f10cd12ce78f4bfaef7da4771595a8e0957fab716110ba1d9ff8"
            },
            "arguments": {
                "inputs": {
                    "type": "CONTAINER",
                    "data": "steps.3.produce"
                },
                "outputs": {
                    "type": "CONTAINER",
                    "data": "steps.1.produce"
                }
            },
            "outputs": [
                {
                    "id": "produce"
                }
            ]
        },
        {
            "type": "PRIMITIVE",
            "primitive": {
                "id": "4b42ce1e-9b98-4a25-b68e-fad13311eb65",
                "version": "0.3.0",
                "python_path": "d3m.primitives.data_transformation.dataset_to_dataframe.Common",
                "name": "Extract a DataFrame from a Dataset",
                "digest": "81bad326103ae32bd267da87163295ea80c0cd3d3f483b38bbaad13c59e04769"
            },
            "arguments": {
                "inputs": {
                    "type": "CONTAINER",
                    "data": "steps.0.produce"
                }
            },
            "outputs": [
                {
                    "id": "produce"
                }
            ],
            "hyperparams": {
                "dataframe_resource": {
                    "type": "VALUE",
                    "data": "2"
                }
            }
        },
        {
            "type": "PRIMITIVE",
            "primitive": {
                "id": "8d38b340-f83f-4877-baaa-162f8e551736",
                "version": "0.3.0",
                "python_path": "d3m.primitives.data_transformation.construct_predictions.DataFrameCommon",
                "name": "Construct pipeline predictions output",
                "digest": "cb57ef54c67f35c34a71a85a4ce1ca1ea6eca12411c0b1b6d93fdf8a79dc9405"
            },
            "arguments": {
                "inputs": {
                    "type": "CONTAINER",
                    "data": "steps.4.produce"
                },
                "reference": {
                    "type": "CONTAINER",
                    "data": "steps.5.produce"
                }
            },
            "outputs": [
                {
                    "id": "produce"
                }
            ]
        }
    ],
    "digest": "87603d2a2d82b90232050d522b9c17d586b9d7c2e40c536e40e62e27e681a172"
}